DynamoDB;Subdivision;Update;100;5;9918;6610944
DynamoDB;Subdivision;Update;100;15;11506;7626752
DynamoDB;Subdivision;Update;100;30;12236;10027008
DynamoDB;Subdivision;Update;1000;5;119833;14786560
DynamoDB;Subdivision;Update;1000;15;126227;40333312
DynamoDB;Subdivision;Update;1000;30;132595;67653632
DynamoDB;Subdivision;Delete;100;5;1780;4673536
DynamoDB;Subdivision;Delete;100;15;1820;6246400
DynamoDB;Subdivision;Delete;100;30;1887;6201344
DynamoDB;Subdivision;Delete;1000;5;18507;4984832
DynamoDB;Subdivision;Delete;1000;15;18930;11550720
DynamoDB;Subdivision;Delete;1000;30;19807;16658432
